{"name": "sony"}
{"name": "sennheiser"}
{"name": "audio technica"}
{"name": "skullcandy"}
{"name": "philips"}
{"name": "jvc"}
{"name": "akg"}
{"name": "koss"}
{"name": "panasonic"}
{"name": "beyerdynamic"}
{"name": "coby"}
{"name": "shure"}
{"name": "pioneer"}
{"name": "meelectronics"}
{"name": "maxell"}
{"name": "denon"}
{"name": "ultrasone"}
{"name": "westone"}
{"name": "grado"}
{"name": "ultimate ears"}
{"name": "monster"}
{"name": "v moda"}
{"name": "final"}
{"name": "ifrogz"}
{"name": "wesc"}
{"name": "brainwavz"}
{"name": "bose"}
{"name": "creative"}
{"name": "fischer audio"}
{"name": "hifiman"}
{"name": "klipsch"}
{"name": "kz"}
{"name": "edifier"}
{"name": "jays"}
{"name": "stax"}
{"name": "yamaha"}
{"name": "noble"}
{"name": "soundmagic"}
{"name": "jbl"}
{"name": "nemo digital"}
{"name": "etymotic"}
{"name": "vsonic"}
{"name": "dunu"}
{"name": "beats"}
{"name": "iluv"}
{"name": "nicehck"}
{"name": "astrotec"}
{"name": "jbuds"}
{"name": "califone"}
{"name": "nixon"}
{"name": "fostex"}
{"name": "earsonics"}
{"name": "nuforce"}
{"name": "altec"}
{"name": "tfz"}
{"name": "wicked"}
{"name": "rha"}
{"name": "superlux"}
{"name": "unique melody"}
{"name": "audeze"}
{"name": "t peos"}
{"name": "razer"}
{"name": "fiio"}
{"name": "hisoundaudio"}
{"name": "64 audio"}
{"name": "thinksound"}
{"name": "phiaton"}
{"name": "plantronics"}
{"name": "comply"}
{"name": "apple"}
{"name": "1more"}
{"name": "logitech"}
{"name": "aurisonics"}
{"name": "audiology"}
{"name": "tdk"}
{"name": "campfire"}
{"name": "rhapsodio"}
{"name": "accutone"}
{"name": "scosche"}
{"name": "xears"}
{"name": "aerial7"}
{"name": "lz"}
{"name": "mrspeakers"}
{"name": "jabra"}
{"name": "bluedio"}
{"name": "rock jaw"}
{"name": "bowers wilkins"}
{"name": "ct"}
{"name": "xiaomi"}
{"name": "lear"}
{"name": "monoprice"}
{"name": "steelseries"}
{"name": "turtle beach"}
{"name": "able planet"}
{"name": "kicker"}
{"name": "nike"}
{"name": "shozy"}
{"name": "soundpeats"}
{"name": "acoustic research"}
{"name": "empire ears"}
